…
#Example calls for findRecipeByNutrients
dispDF <- findRecipeByNutrients(numberOfRecipes = 20)
```

These are the data frames containing nutrient information about the
particular cuisine, which can be used further for our data exploration
(EDA).

``` r
  AmericanCuisineInfotbl <- as_tibble(AmericanCuisineInfo$results)
  AmericanCuisineInfotbl
```

    ## # A tibble: 100 × 35
    ##    vegetarian vegan glutenF…¹ dairy…² veryH…³ cheap veryP…⁴ susta…⁵
    ##    <lgl>      <lgl> <lgl>     <lgl>   <lgl>   <lgl> <lgl>   <lgl>  
    ##  1 TRUE       TRUE  FALSE     TRUE    FALSE   FALSE FALSE   FALSE  
    ##  2 FALSE      FALSE TRUE      FALSE   TRUE    FALSE FALSE   FALSE  
    ##  3 FALSE      FALSE TRUE      FALSE   FALSE   FALSE FALSE   FALSE  
    ##  4 FALSE      FALSE FALSE     TRUE    TRUE    FALSE FALSE   FALSE  
    ##  5 FALSE      FALSE TRUE      TRUE    FALSE   FALSE FALSE   FALSE  
    ##  6 FALSE      FALSE FALSE     FALSE   FALSE   FALSE FALSE   FALSE  
    ##  7 FALSE      FALSE FALSE     FALSE   FALSE   FALSE FALSE   FALSE  
    ##  8 FALSE      FALSE FALSE     TRUE    FALSE   FALSE FALSE   FALSE  
    ##  9 FALSE      FALSE TRUE      FALSE   FALSE   FALSE FALSE   FALSE  
    ## 10 FALSE      FALSE FALSE     TRUE    FALSE   FALSE FALSE   FALSE  
    ## # … with 90 more rows, 27 more variables: lowFodmap <lgl>,
    ## #   weightWatcherSmartPoints <int>, gaps <chr>,
    ## #   preparationMinutes <int>, cookingMinutes <int>,
    ## #   aggregateLikes <int>, healthScore <int>, creditsText <chr>,
    ## #   sourceName <chr>, pricePerServing <dbl>, id <int>,
    ## #   title <chr>, readyInMinutes <int>, servings <int>,
    ## #   sourceUrl <chr>, image <chr>, imageType <chr>, …
…
# output nutrients tibble
nutrients
```

    ## # A tibble: 100 × 14
    ##    df    Calorie…¹ Fat_g Carbo…² Prote…³     id title veget…⁴ vegan
    ##    <chr>     <dbl> <dbl>   <dbl>   <dbl>  <int> <chr> <lgl>   <lgl>
    ##  1 1          590. 21.9    80.5     23.4 6.43e5 Fala… TRUE    TRUE 
    ##  2 2          393. 29.0     7.17    26.9 6.47e5 Salm… FALSE   FALSE
    ##  3 3          455. 25.9    25.6     33.7 6.39e5 Chil… FALSE   FALSE
    ##  4 4          479.  8.77   85.0     18.7 6.51e5 Masa… FALSE   FALSE
    ##  5 5          450. 17.5    11.7     56.9 6.60e5 Slow… FALSE   FALSE
    ##  6 6          475. 18.2    27.7     49.0 6.38e5 Chee… FALSE   FALSE
    ##  7 7          971. 69.6    34.0     50.6 7.76e5 Gorg… FALSE   FALSE
    ##  8 8          755. 20.5    58.9     82.6 6.57e5 Pull… FALSE   FALSE
    ##  9 9          588. 23.9    28.6     65.4 6.62e5 Supe… FALSE   FALSE
    ## 10 10         311.  8.83   33.8     23.2 1.10e6 Salm… FALSE   FALSE
    ## # … with 90 more rows, 5 more variables: pricePerServing <dbl>,
    ## #   readyInMinutes <int>, servings <int>, totalprice <dbl>,
    ## #   protein_per_serving <dbl>, and abbreviated variable names
    ## #   ¹​Calories_kcal, ²​Carbohydrates_g, ³​Protein_g, ⁴​vegetarian
…
